user.miochoa.301254.hbbTraining.e3749_s3126_r9364_p3990.2020_rd_TCC.tcc_Jun20_output.h5/
user.miochoa.301255.hbbTraining.e3749_s3126_r9364_p3990.2020_rd_TCC.tcc_Jun20_output.h5/
user.miochoa.301256.hbbTraining.e3743_s3126_r9364_p3990.2020_rd_TCC.tcc_Jun20_output.h5/
user.miochoa.301257.hbbTraining.e3749_s3126_r9364_p3990.2020_rd_TCC.tcc_Jun20_output.h5/
user.miochoa.301258.hbbTraining.e3743_s3126_r9364_p3990.2020_rd_TCC.tcc_Jun20_output.h5/
user.miochoa.301259.hbbTraining.e3743_s3126_r9364_p3990.2020_rd_TCC.tcc_Jun20_output.h5/
user.miochoa.301261.hbbTraining.e3743_s3126_r9364_p3990.2020_rd_TCC.tcc_Jun20_output.h5/
user.miochoa.301262.hbbTraining.e3743_s3126_r9364_p3990.2020_rd_TCC.tcc_Jun20_output.h5/
user.miochoa.301263.hbbTraining.e3743_s3126_r9364_p3990.2020_rd_TCC.tcc_Jun20_output.h5/
user.miochoa.301265.hbbTraining.e3743_s3126_r9364_p3990.2020_rd_TCC.tcc_Jun20_output.h5/
user.miochoa.301266.hbbTraining.e3743_s3126_r9364_p3990.2020_rd_TCC.tcc_Jun20_output.h5/
user.miochoa.301267.hbbTraining.e3749_s3126_r9364_p3990.2020_rd_TCC.tcc_Jun20_output.h5/
user.miochoa.301268.hbbTraining.e3743_s3126_r9364_p3990.2020_rd_TCC.tcc_Jun20_output.h5/
user.miochoa.301269.hbbTraining.e3743_s3126_r9364_p3990.2020_rd_TCC.tcc_Jun20_output.h5/
user.miochoa.301270.hbbTraining.e3743_s3126_r9364_p3990.2020_rd_TCC.tcc_Jun20_output.h5/
user.miochoa.301271.hbbTraining.e3743_s3126_r9364_p3990.2020_rd_TCC.tcc_Jun20_output.h5/
user.miochoa.301272.hbbTraining.e3743_s3126_r9364_p3990.2020_rd_TCC.tcc_Jun20_output.h5/
user.miochoa.301273.hbbTraining.e3743_s3126_r9364_p3990.2020_rd_TCC.tcc_Jun20_output.h5/
user.miochoa.301274.hbbTraining.e3743_s3126_r9364_p3990.2020_rd_TCC.tcc_Jun20_output.h5/
user.miochoa.301275.hbbTraining.e3743_s3126_r9364_p3990.2020_rd_TCC.tcc_Jun20_output.h5/
user.miochoa.301277.hbbTraining.e3743_s3126_r9364_p3990.2020_rd_TCC.tcc_Jun20_output.h5/
user.miochoa.301278.hbbTraining.e3743_s3126_r9364_p3990.2020_rd_TCC.tcc_Jun20_output.h5/
user.miochoa.301279.hbbTraining.e3743_s3126_r9364_p3990.2020_rd_TCC.tcc_Jun20_output.h5/
user.miochoa.301280.hbbTraining.e3743_s3126_r9364_p3990.2020_rd_TCC.tcc_Jun20_output.h5/
user.miochoa.301281.hbbTraining.e3743_s3126_r9364_p3990.2020_rd_TCC.tcc_Jun20_output.h5/
user.miochoa.301282.hbbTraining.e3743_s3126_r9364_p3990.2020_rd_TCC.tcc_Jun20_output.h5/
user.miochoa.301284.hbbTraining.e3743_s3126_r9364_p3990.2020_rd_TCC.tcc_Jun20_output.h5/
user.miochoa.301285.hbbTraining.e3743_s3126_r9364_p3990.2020_rd_TCC.tcc_Jun20_output.h5/
user.miochoa.301286.hbbTraining.e3743_s3126_r9364_p3990.2020_rd_TCC.tcc_Jun20_output.h5/
user.miochoa.301287.hbbTraining.e3743_s3126_r9364_p3990.2020_rd_TCC.tcc_Jun20_output.h5/
user.miochoa.301322.hbbTraining.e4061_s3126_r9364_p3990.2020_rd_TCC.tcc_Jun20_output.h5/
user.miochoa.301323.hbbTraining.e4061_s3126_r9364_p3990.2020_rd_TCC.tcc_Jun20_output.h5/
user.miochoa.301324.hbbTraining.e4061_s3126_r9364_p3990.2020_rd_TCC.tcc_Jun20_output.h5/
user.miochoa.301325.hbbTraining.e4061_s3126_r9364_p3990.2020_rd_TCC.tcc_Jun20_output.h5/
user.miochoa.301326.hbbTraining.e4061_s3126_r9364_p3990.2020_rd_TCC.tcc_Jun20_output.h5/
user.miochoa.301327.hbbTraining.e4061_s3126_r9364_p3990.2020_rd_TCC.tcc_Jun20_output.h5/
user.miochoa.301328.hbbTraining.e4061_s3126_r9364_p3990.2020_rd_TCC.tcc_Jun20_output.h5/
user.miochoa.301329.hbbTraining.e4061_s3126_r9364_p3990.2020_rd_TCC.tcc_Jun20_output.h5/
user.miochoa.301330.hbbTraining.e4061_s3126_r9364_p3990.2020_rd_TCC.tcc_Jun20_output.h5/
user.miochoa.301331.hbbTraining.e4061_s3126_r9364_p3990.2020_rd_TCC.tcc_Jun20_output.h5/
user.miochoa.301332.hbbTraining.e4061_s3126_r9364_p3990.2020_rd_TCC.tcc_Jun20_output.h5/
user.miochoa.301333.hbbTraining.e3723_s3126_r9364_p3990.2020_rd_TCC.tcc_Jun20_output.h5/
user.miochoa.301334.hbbTraining.e3723_s3126_r9364_p3990.2020_rd_TCC.tcc_Jun20_output.h5/
user.miochoa.301335.hbbTraining.e3723_s3126_r9364_p3990.2020_rd_TCC.tcc_Jun20_output.h5/
user.miochoa.301488.hbbTraining.e3820_s3126_r9364_p3990.2020_rd_TCC.tcc_Jun20_output.h5/
user.miochoa.301489.hbbTraining.e3820_s3126_r9364_p3990.2020_rd_TCC.tcc_Jun20_output.h5/
user.miochoa.301490.hbbTraining.e3820_s3126_r9364_p3990.2020_rd_TCC.tcc_Jun20_output.h5/
user.miochoa.301491.hbbTraining.e3820_s3126_r9364_p3990.2020_rd_TCC.tcc_Jun20_output.h5/
user.miochoa.301492.hbbTraining.e3820_s3126_r9364_p3990.2020_rd_TCC.tcc_Jun20_output.h5/
user.miochoa.301493.hbbTraining.e3820_s3126_r9364_p3990.2020_rd_TCC.tcc_Jun20_output.h5/
user.miochoa.301494.hbbTraining.e3820_s3126_r9364_p3990.2020_rd_TCC.tcc_Jun20_output.h5/
user.miochoa.301495.hbbTraining.e3820_s3126_r9364_p3990.2020_rd_TCC.tcc_Jun20_output.h5/
user.miochoa.301496.hbbTraining.e3820_s3126_r9364_p3990.2020_rd_TCC.tcc_Jun20_output.h5/
user.miochoa.301497.hbbTraining.e3820_s3126_r9364_p3990.2020_rd_TCC.tcc_Jun20_output.h5/
user.miochoa.301498.hbbTraining.e3820_s3126_r9364_p3990.2020_rd_TCC.tcc_Jun20_output.h5/
user.miochoa.301499.hbbTraining.e3820_s3126_r9364_p3990.2020_rd_TCC.tcc_Jun20_output.h5/
user.miochoa.301500.hbbTraining.e3820_s3126_r9364_p3990.2020_rd_TCC.tcc_Jun20_output.h5/
user.miochoa.301501.hbbTraining.e3820_s3126_r9364_p3990.2020_rd_TCC.tcc_Jun20_output.h5/
user.miochoa.301502.hbbTraining.e3820_s3126_r9364_p3990.2020_rd_TCC.tcc_Jun20_output.h5/
user.miochoa.301503.hbbTraining.e3820_s3126_r9364_p3990.2020_rd_TCC.tcc_Jun20_output.h5/
user.miochoa.301504.hbbTraining.e3820_s3126_r9364_p3990.2020_rd_TCC.tcc_Jun20_output.h5/
user.miochoa.301505.hbbTraining.e3820_s3126_r9364_p3990.2020_rd_TCC.tcc_Jun20_output.h5/
user.miochoa.301506.hbbTraining.e3820_s3126_r9364_p3990.2020_rd_TCC.tcc_Jun20_output.h5/
user.miochoa.301507.hbbTraining.e3820_s3126_r9364_p3990.2020_rd_TCC.tcc_Jun20_output.h5/
user.miochoa.305776.hbbTraining.e5184_s3126_r9364_p3990.2020_rd_TCC.tcc_Jun20_output.h5/
user.miochoa.305777.hbbTraining.e5184_s3126_r9364_p3990.2020_rd_TCC.tcc_Jun20_output.h5/
user.miochoa.305778.hbbTraining.e5184_s3126_r9364_p3990.2020_rd_TCC.tcc_Jun20_output.h5/
user.miochoa.305779.hbbTraining.e5184_s3126_r9364_p3990.2020_rd_TCC.tcc_Jun20_output.h5/
user.miochoa.305780.hbbTraining.e5184_s3126_r9364_p3990.2020_rd_TCC.tcc_Jun20_output.h5/
user.miochoa.309450.hbbTraining.e6281_s3126_r9364_p3990.2020_rd_TCC.tcc_Jun20_output.h5/
user.miochoa.361020.hbbTraining.e3569_s3126_r9364_p3990.2020_rd_TCC.tcc_Jun20_output.h5/
user.miochoa.361021.hbbTraining.e3569_s3126_r9364_p3990.2020_rd_TCC.tcc_Jun20_output.h5/
user.miochoa.361022.hbbTraining.e3668_s3126_r9364_p3990.2020_rd_TCC.tcc_Jun20_output.h5/
user.miochoa.361023.hbbTraining.e3668_s3126_r9364_p3990.2020_rd_TCC.tcc_Jun20_output.h5/
user.miochoa.361024.hbbTraining.e3668_s3126_r9364_p3990.2020_rd_TCC.tcc_Jun20_output.h5/
user.miochoa.361025.hbbTraining.e3668_s3126_r9364_p3990.2020_rd_TCC.tcc_Jun20_output.h5/
user.miochoa.361026.hbbTraining.e3569_s3126_r9364_p3990.2020_rd_TCC.tcc_Jun20_output.h5/
user.miochoa.361027.hbbTraining.e3668_s3126_r9364_p3990.2020_rd_TCC.tcc_Jun20_output.h5/
user.miochoa.361028.hbbTraining.e3569_s3126_r9364_p3990.2020_rd_TCC.tcc_Jun20_output.h5/
user.miochoa.361029.hbbTraining.e3569_s3126_r9364_p3990.2020_rd_TCC.tcc_Jun20_output.h5/
user.miochoa.361030.hbbTraining.e3569_s3126_r9364_p3990.2020_rd_TCC.tcc_Jun20_output.h5/
user.miochoa.361031.hbbTraining.e3569_s3126_r9364_p3990.2020_rd_TCC.tcc_Jun20_output.h5/
user.miochoa.361032.hbbTraining.e3668_s3126_r9364_p3990.2020_rd_TCC.tcc_Jun20_output.h5/
