user.miochoa.364903.hbbTraining.e7482_s3126_r9364_p4060.2020_ftag1dev.v2_output.h5
user.miochoa.364904.hbbTraining.e7482_s3126_r9364_p4060.2020_ftag1dev.v2_output.h5
user.miochoa.364905.hbbTraining.e7482_s3126_r9364_p4060.2020_ftag1dev.v2_output.h5
user.miochoa.364906.hbbTraining.e7482_s3126_r9364_p4060.2020_ftag1dev.v2_output.h5
user.miochoa.364907.hbbTraining.e7482_s3126_r9364_p4060.2020_ftag1dev.v2_output.h5
